{
    "Image_Build_IDs": {
        "adsp": "ADSP.HT.5.0.1-00159-SM8150-1", 
        "aop": "AOP.HO.1.1-00231-SM8150AAAAANAZO-1", 
        "apps": "LA.UM.8.1.r1-08700-sm8150.0-1", 
        "boot": "BOOT.XF.3.0-00486-SM8150LZB-1", 
        "btfm": "BTFM.CHE.2.1.5-00180-QCACHROMZ-1", 
        "cdsp": "CDSP.HT.2.0.1-00131-SM8150-1", 
        "common": "SM8150.LA.2.0-00125-STD.PROD-2", 
        "glue": "GLUE.SM8150_LA.2.0-00037-NOOP_TEST-1", 
        "modem": "MPSS.HE.1.0.c11-00081.1-SM8150_GEN_PACK-1", 
        "npu": "NPU.FW.1.0-00046-SM8150-1", 
        "slpi": "SLPI.HY.2.2-00089-SM8150AZL-1", 
        "spss": "SPSS.A1.1.2-00090-SM8150AAAAANAZS-1", 
        "tz": "TZ.XF.5.2-00106-SM8150AAAAANAZT-1", 
        "video": "VIDEO.IR.1.2-00022-PROD-1", 
        "wapi": "WLAN_ADDON.HL.1.0-00039-CNSS_RMZ_WAPI-1", 
        "wdsp": "WDSP.9340.2.0-00039-W9340AAAAAAAZQ-1", 
        "wgig": "WIGIG.TLN.7.4-00018-WIGIGTLNZ-1", 
        "wlan": "WLAN.HL.3.2.0-00314-QCAHLSWMTPLZ-1"
    }, 
    "Metabuild_Info": {
        "Meta_Build_ID": "SM8150.LA.2.0-00125-STD.PROD-2", 
        "Product_Flavor": "asic", 
        "Time_Stamp": "2020-04-23 18:12:57"
    }, 
    "Version": "1.0"
}